{
    "relationships": [
        {
            "relationshipId": 1,
            "relationshipName": "jugador",
            "otherEntityName": "jugador",
            "relationshipType": "one-to-one",
            "ownerSide": false,
            "otherEntityRelationshipName": "equipo"
        },
        {
            "relationshipId": 2,
            "relationshipName": "jugadores",
            "otherEntityName": "jugador",
            "relationshipType": "one-to-many",
            "otherEntityRelationshipName": "jugadorEquipo"
        },
        {
            "relationshipId": 3,
            "relationshipName": "entrenador",
            "otherEntityName": "entrenador",
            "relationshipType": "one-to-one",
            "otherEntityField": "nombre",
            "ownerSide": true,
            "otherEntityRelationshipName": "equipo"
        },
        {
            "relationshipId": 4,
            "relationshipName": "estadio",
            "otherEntityName": "estadio",
            "relationshipType": "one-to-one",
            "otherEntityField": "nombre",
            "ownerSide": true,
            "otherEntityRelationshipName": "equipo"
        },
        {
            "relationshipId": 5,
            "relationshipName": "socios",
            "otherEntityName": "socio",
            "relationshipType": "many-to-many",
            "otherEntityField": "nombre",
            "ownerSide": true
        },
        {
            "relationshipId": 6,
            "relationshipName": "localEquipo",
            "otherEntityName": "partido",
            "relationshipType": "one-to-many",
            "otherEntityRelationshipName": "equipoLocal"
        },
        {
            "relationshipId": 7,
            "relationshipName": "visitanteEquipo",
            "otherEntityName": "partido",
            "relationshipType": "one-to-many",
            "otherEntityRelationshipName": "equipoVisitante"
        },
        {
            "relationshipId": 8,
            "relationshipName": "equipoTemporada",
            "otherEntityName": "temporada",
            "relationshipType": "many-to-many",
            "otherEntityField": "anyo",
            "ownerSide": true
        }
    ],
    "fields": [
        {
            "fieldId": 1,
            "fieldName": "nombre",
            "fieldType": "String"
        },
        {
            "fieldId": 2,
            "fieldName": "localidad",
            "fieldType": "String"
        },
        {
            "fieldId": 3,
            "fieldName": "fechaCracion",
            "fieldType": "LocalDate"
        }
    ],
    "changelogDate": "20151207180013",
    "dto": "no",
    "service": "no",
    "pagination": "pagination"
}
