{
    "relationships": [
        {
            "relationshipId": 1,
            "relationshipName": "jugador",
            "otherEntityName": "jugador",
            "relationshipType": "many-to-one",
            "otherEntityField": "nombre"
        },
        {
            "relationshipId": 2,
            "relationshipName": "estadisticasPartido",
            "otherEntityName": "partido",
            "relationshipType": "many-to-one",
            "otherEntityField": "id"
        }
    ],
    "fields": [
        {
            "fieldId": 1,
            "fieldName": "canastas",
            "fieldType": "Integer"
        },
        {
            "fieldId": 2,
            "fieldName": "faltas",
            "fieldType": "Integer"
        },
        {
            "fieldId": 3,
            "fieldName": "rebotes",
            "fieldType": "Integer"
        }
    ],
    "changelogDate": "20151203172814",
    "dto": "no",
    "pagination": "pagination"
}
